{
  "name": "Strong",
  "price": 15,
  "damage": 10.0,
  "speed": 0.1,
  "range": 2.0,
  "firingPosition": [
    0.0,
    0.6,
    -0.2
  ],
  "rotateToFire": true,
  "projectile": "cannonball",
  "model": "strong_tower"
}