# Blender v2.79 (sub 0) OBJ File: ''
# www.blender.org
mtllib tower.mtl
o Cylinder.001
v 0.249184 0.258987 0.249184
v 0.141363 0.880715 0.211565
v 0.195783 0.258987 0.293010
v -0.068749 0.258987 -0.345629
v 0.000000 -0.000367 -0.352400
v -0.068749 -0.000367 -0.345629
v -0.134857 0.258987 -0.325575
v -0.134857 -0.000367 -0.325575
v 0.134857 -0.000367 0.325575
v -0.325575 -0.000367 0.134857
v -0.195782 0.258987 -0.293010
v -0.195782 -0.000367 -0.293010
v -0.249184 0.258987 -0.249184
v -0.249184 -0.000367 -0.249184
v -0.293009 0.258987 -0.195783
v -0.293009 -0.000367 -0.195783
v -0.325575 0.258987 -0.134858
v -0.325575 -0.000367 -0.134858
v -0.345628 0.258987 -0.068750
v -0.345628 -0.000367 -0.068750
v -0.352400 0.258987 -0.000000
v -0.352400 -0.000367 -0.000000
v -0.345628 0.258987 0.068750
v -0.345628 -0.000367 0.068750
v -0.293010 -0.000367 0.195783
v -0.325575 0.258987 0.135983
v -0.249184 -0.000367 0.249184
v -0.293010 0.258987 0.196909
v -0.195783 0.258987 0.293009
v -0.195783 -0.000367 0.293009
v -0.134858 0.258987 0.325575
v -0.134858 -0.000367 0.325575
v -0.068750 0.258987 0.345628
v -0.068750 -0.000367 0.345628
v 0.000000 0.258987 0.352400
v 0.000000 -0.000367 0.352400
v 0.068750 0.258987 0.345628
v 0.068750 -0.000367 0.345628
v 0.134857 0.258987 0.325575
v 0.195783 -0.000367 0.293010
v 0.249184 -0.000367 0.249184
v 0.293010 0.258987 0.195783
v 0.293010 -0.000367 0.195783
v 0.325575 0.258987 0.134857
v 0.325575 -0.000367 0.134857
v 0.345628 0.258987 0.068750
v 0.345628 -0.000367 0.068750
v 0.352400 0.258987 0.000000
v 0.352400 -0.000367 -0.000000
v 0.345628 0.258987 -0.068750
v 0.345628 -0.000367 -0.068750
v 0.325575 0.258987 -0.134857
v 0.325575 -0.000367 -0.134857
v 0.293010 0.258987 -0.195783
v 0.293010 -0.000367 -0.195783
v 0.249184 0.258987 -0.249184
v 0.249184 -0.000367 -0.249184
v 0.195783 0.258987 -0.293009
v 0.195783 -0.000367 -0.293009
v 0.134857 0.258987 -0.325575
v 0.134857 -0.000367 -0.325575
v 0.068750 0.258987 -0.345628
v 0.068750 -0.000367 -0.345628
v 0.000000 0.258987 -0.352400
v 0.141363 0.880715 -0.211565
v 0.313786 0.976616 -0.313785
v 0.179921 0.880715 -0.179921
v -0.235079 0.880715 -0.097373
v 0.000000 0.880715 0.254447
v -0.049640 0.880715 0.249558
v 0.254447 0.880715 0.000000
v -0.141363 0.880715 -0.211565
v -0.097373 0.880715 -0.235079
v -0.249184 0.258987 0.249184
v -0.211566 0.880715 0.142489
v 0.179921 0.880715 0.179921
v -0.249558 0.880715 -0.049640
v 0.249558 0.880715 -0.049640
v -0.141364 0.880715 0.211565
v -0.179921 0.880715 0.179921
v 0.211565 0.880715 0.141363
v 0.097373 0.880715 -0.235079
v -0.249558 0.880715 0.049640
v -0.254447 0.880715 -0.000000
v 0.049640 0.880715 0.249558
v 0.235079 0.880715 -0.097373
v -0.211565 0.880715 -0.141364
v -0.179921 0.880715 -0.179921
v 0.235079 0.880715 0.097373
v 0.000000 0.880715 -0.254447
v 0.049640 0.880715 -0.249558
v -0.235079 0.880715 0.098499
v 0.097373 0.880715 0.235079
v 0.211565 0.880715 -0.141363
v -0.097373 0.880715 0.235079
v 0.249558 0.880715 0.049640
v -0.049640 0.880715 -0.249558
v 0.000000 0.976616 -0.443760
v 0.086573 1.093908 -0.435233
v 0.086573 0.976616 -0.435233
v -0.086574 0.976616 0.435233
v -0.169819 0.976616 -0.409981
v 0.246540 0.976616 -0.368973
v 0.086573 0.976616 0.435233
v -0.000000 0.976616 0.443760
v -0.246539 0.976616 -0.368973
v 0.169820 0.976616 -0.409981
v -0.313785 0.976616 -0.313786
v 0.246540 0.976616 0.368973
v 0.169820 0.976616 0.409981
v -0.368973 0.976616 -0.246540
v 0.313786 0.976616 0.313786
v -0.409981 0.976616 -0.169820
v -0.435233 0.976616 -0.086574
v 0.409981 0.976616 0.169820
v 0.368973 0.976616 0.246540
v -0.443760 0.976616 -0.000000
v 0.435233 0.976616 0.086573
v -0.435233 0.976616 0.086573
v -0.368973 0.976616 0.246540
v -0.409981 0.976616 0.169819
v 0.435233 0.976616 -0.086573
v 0.443760 0.976616 0.000000
v -0.313786 0.976616 0.313786
v 0.409981 0.976616 -0.169820
v -0.246540 0.976616 0.368973
v 0.368973 0.976616 -0.246540
v -0.169820 0.976616 0.409981
v -0.086573 0.976616 -0.435233
v 0.409981 1.093908 0.169820
v 0.287185 1.119340 0.191891
v 0.368973 1.093908 0.246540
v 0.169820 1.093908 0.409981
v -0.368973 1.093908 -0.246540
v 0.246540 1.093908 0.368973
v -0.409981 1.093908 -0.169820
v 0.313786 1.093908 0.313786
v -0.435233 1.093908 -0.086574
v -0.443760 1.093908 -0.000000
v -0.435233 1.093908 0.086573
v 0.435233 1.093908 0.086573
v -0.409981 1.093908 0.169819
v 0.443760 1.093908 0.000000
v -0.368973 1.093908 0.246540
v 0.435233 1.093908 -0.086573
v -0.313786 1.093908 0.313786
v 0.409981 1.093908 -0.169820
v -0.246540 1.093908 0.368973
v 0.000000 1.093908 -0.443760
v 0.368973 1.093908 -0.246540
v -0.169820 1.093908 0.409981
v -0.086573 1.093908 -0.435233
v 0.313786 1.093908 -0.313785
v -0.086574 1.093908 0.435233
v -0.169819 1.093908 -0.409981
v 0.246540 1.093908 -0.368973
v -0.000000 1.093908 0.443760
v -0.246539 1.093908 -0.368973
v 0.169820 1.093908 -0.409980
v 0.086573 1.093908 0.435233
v -0.313785 1.093908 -0.313786
v 0.276098 1.119340 -0.054919
v 0.278464 1.713616 0.000000
v 0.273113 1.713616 -0.054325
v -0.345394 1.119340 -0.000000
v 0.338757 1.119340 0.067383
v 0.319102 1.119340 0.132177
v -0.319103 1.119340 0.132176
v -0.338757 1.119340 0.067383
v 0.345394 1.119340 0.000000
v -0.244231 1.119340 0.244231
v -0.287185 1.119340 0.191890
v 0.338757 1.119340 -0.067383
v 0.287185 1.119340 -0.191890
v 0.319102 1.119340 -0.132177
v -0.191891 1.119340 0.287185
v 0.000000 1.119340 -0.345394
v -0.132177 1.119340 0.319102
v -0.067383 1.119340 -0.338757
v 0.191891 1.119340 -0.287184
v 0.244231 1.119340 -0.244230
v 0.000000 1.119340 0.345394
v -0.067383 1.119340 0.338757
v -0.191890 1.119340 -0.287185
v -0.132176 1.119340 -0.319102
v 0.132177 1.119340 -0.319102
v 0.132177 1.119340 0.319103
v 0.067383 1.119340 0.338757
v -0.244230 1.119340 -0.244230
v 0.067383 1.119340 -0.338757
v -0.319102 1.119340 -0.132177
v -0.287184 1.119340 -0.191891
v 0.191891 1.119340 0.287185
v 0.244231 1.119340 0.244231
v -0.338757 1.119340 -0.067383
v 0.156397 1.119340 0.234065
v 0.276098 1.119340 0.054919
v 0.054919 1.119340 -0.276098
v -0.199056 1.119340 0.199056
v -0.234065 1.119340 0.156397
v 0.260079 1.119340 -0.107728
v -0.107728 1.119340 0.260079
v -0.156397 1.119340 0.234065
v -0.276098 1.119340 0.054919
v -0.338757 1.471739 0.067383
v 0.234065 1.119340 -0.156397
v -0.054919 1.119340 -0.276098
v 0.156397 1.119340 -0.234065
v 0.199056 1.119340 -0.199056
v 0.000000 1.119340 0.281507
v -0.054919 1.119340 0.276098
v -0.156397 1.119340 -0.234065
v -0.107728 1.119340 -0.260079
v 0.000000 1.471739 0.345394
v 0.000000 1.713616 0.278464
v 0.107728 1.119340 -0.260079
v 0.054919 1.119340 0.276098
v -0.199056 1.119340 -0.199056
v 0.000000 1.119340 -0.281507
v 0.107728 1.119340 0.260079
v -0.260079 1.119340 -0.107728
v -0.234064 1.119340 -0.156397
v 0.234065 1.119340 0.156397
v 0.199056 1.119340 0.199056
v -0.281507 1.119340 -0.000000
v -0.276098 1.119340 -0.054920
v 0.054326 1.713616 0.273113
v 0.260079 1.119340 0.107728
v -0.260079 1.119340 0.107728
v 0.281507 1.119340 0.000000
v 0.338757 1.471739 -0.067383
v 0.345394 1.471739 0.000000
v -0.067383 1.471739 -0.338757
v 0.000000 1.713616 -0.278464
v 0.000000 1.471739 -0.345394
v -0.278464 1.713616 -0.000000
v -0.345394 1.471739 -0.000000
v 0.067383 1.471739 0.338757
v -0.054325 1.713616 -0.273113
v -0.273113 1.713616 0.054325
v 0.053744 1.715915 0.272123
v -0.053744 1.715915 -0.272123
v 0.277380 1.715915 -0.000377
v 0.272123 1.715915 -0.053744
v -0.272124 1.715915 0.053744
v 0.000377 1.715915 0.277380
v -0.000377 1.715915 -0.277380
v -0.277380 1.715915 0.000377
v 0.401087 1.775144 -0.079781
v 0.065184 2.175416 -0.012966
v 0.408945 1.775144 0.000000
v -0.401087 1.775144 0.079781
v 0.000000 1.775144 -0.408945
v 0.000000 1.775144 0.408945
v -0.408945 1.775144 -0.000000
v 0.000000 2.175416 0.066461
v 0.012966 2.175416 0.065184
v -0.066461 2.175416 0.000000
v -0.079781 1.775144 -0.401087
v 0.079781 1.775144 0.401087
v 0.000000 2.175416 -0.066461
v 0.397368 1.775891 -0.077881
v 0.065041 2.172964 -0.000492
v 0.063888 2.172964 -0.012207
v -0.397368 1.775891 0.077880
v 0.077881 1.775891 0.397368
v 0.404926 1.775891 -0.001138
v -0.001138 1.775891 -0.404926
v -0.077880 1.775891 -0.397368
v 0.001138 1.775891 0.404927
v -0.404926 1.775891 0.001138
v 0.012206 2.172964 0.063888
v -0.063888 2.172964 0.012207
v -0.065041 2.172964 0.000492
v 0.000492 2.172964 0.065041
v -0.012206 2.172964 -0.063887
v -0.000492 2.172964 -0.065041
v 0.066461 2.175416 0.000000
v -0.012966 2.175416 -0.065184
v -0.065184 2.175416 0.012966
vt 0.278921 0.145754
vt 0.297562 0.042363
vt 0.287633 0.146169
vt 0.333695 0.517030
vt 0.322074 0.473930
vt 0.333695 0.474020
vt 0.344759 0.517237
vt 0.344759 0.474227
vt 0.395883 0.314875
vt 0.355937 0.387870
vt 0.281203 0.348853
vt 0.354841 0.517553
vt 0.354841 0.474543
vt 0.466321 0.085457
vt 0.457255 0.042843
vt 0.466323 0.042448
vt 0.476672 0.085163
vt 0.476674 0.042154
vt 0.487907 0.084982
vt 0.487909 0.041973
vt 0.499595 0.084920
vt 0.499597 0.041911
vt 0.511286 0.084981
vt 0.511289 0.041972
vt 0.522532 0.085161
vt 0.522534 0.042152
vt 0.532902 0.042445
vt 0.541994 0.042840
vt 0.533088 0.085457
vt 0.363554 0.188995
vt 0.371432 0.145539
vt 0.371432 0.188539
vt 0.354136 0.146349
vt 0.354127 0.189360
vt 0.343523 0.146611
vt 0.343514 0.189622
vt 0.332132 0.146759
vt 0.332123 0.189770
vt 0.320401 0.146788
vt 0.320391 0.189798
vt 0.308779 0.146696
vt 0.308770 0.189706
vt 0.297715 0.146487
vt 0.297706 0.189497
vt 0.287624 0.189179
vt 0.278912 0.188764
vt 0.493421 0.317077
vt 0.483995 0.274433
vt 0.493421 0.274066
vt 0.504034 0.316813
vt 0.504034 0.273802
vt 0.515425 0.316662
vt 0.515425 0.273652
vt 0.527157 0.316631
vt 0.527157 0.273621
vt 0.538778 0.316721
vt 0.538778 0.273711
vt 0.549842 0.316928
vt 0.549842 0.273917
vt 0.559924 0.317244
vt 0.559924 0.274233
vt 0.568637 0.317657
vt 0.568637 0.274646
vt 0.288339 0.517386
vt 0.278912 0.474743
vt 0.288339 0.474375
vt 0.298951 0.517122
vt 0.298951 0.474112
vt 0.310343 0.516972
vt 0.310343 0.473961
vt 0.322074 0.516941
vt 0.076598 0.127522
vt 0.042910 0.122478
vt 0.074943 0.119398
vt 0.290111 0.621505
vt 0.278912 0.517753
vt 0.491176 0.188950
vt 0.321221 0.042810
vt 0.329692 0.042790
vt 0.526358 0.420609
vt 0.344935 0.621361
vt 0.337655 0.621133
vt 0.363563 0.145984
vt 0.358066 0.041911
vt 0.495194 0.421196
vt 0.483995 0.317444
vt 0.296917 0.621240
vt 0.499615 0.188905
vt 0.534749 0.420674
vt 0.469042 0.189578
vt 0.457252 0.085852
vt 0.345580 0.042494
vt 0.352386 0.042230
vt 0.502000 0.420931
vt 0.304580 0.621049
vt 0.516177 0.189079
vt 0.508057 0.188949
vt 0.312830 0.042744
vt 0.542738 0.420823
vt 0.483064 0.189081
vt 0.475590 0.189293
vt 0.509663 0.420740
vt 0.321276 0.620919
vt 0.312805 0.620941
vt 0.523851 0.189293
vt 0.304841 0.042593
vt 0.550018 0.421051
vt 0.337917 0.042683
vt 0.517888 0.420631
vt 0.329667 0.620983
vt 0.542180 0.085851
vt 0.483995 0.717996
vt 0.503909 0.732478
vt 0.483995 0.732425
vt 0.145446 0.082590
vt 0.176328 0.068501
vt 0.151443 0.088448
vt 0.113759 0.157310
vt 0.096098 0.185779
vt 0.105440 0.155694
vt 0.079843 0.135176
vt 0.045796 0.136648
vt 0.153570 0.050259
vt 0.165868 0.058285
vt 0.122240 0.157310
vt 0.110605 0.188598
vt 0.084555 0.142064
vt 0.051456 0.149996
vt 0.130558 0.074818
vt 0.138394 0.077988
vt 0.130558 0.155694
vt 0.125397 0.188598
vt 0.090552 0.147921
vt 0.059674 0.162008
vt 0.125397 0.041911
vt 0.139904 0.044730
vt 0.138394 0.152524
vt 0.139904 0.185779
vt 0.122240 0.073201
vt 0.110605 0.041911
vt 0.145446 0.147921
vt 0.153570 0.180250
vt 0.105440 0.074818
vt 0.113758 0.073201
vt 0.151443 0.142064
vt 0.165869 0.172224
vt 0.082432 0.050259
vt 0.096098 0.044730
vt 0.156155 0.135176
vt 0.176328 0.162008
vt 0.097604 0.077988
vt 0.070133 0.058285
vt 0.159522 0.127378
vt 0.184546 0.149995
vt 0.084555 0.088448
vt 0.090552 0.082590
vt 0.193092 0.122478
vt 0.190206 0.136648
vt 0.051456 0.080514
vt 0.059674 0.068501
vt 0.161177 0.119253
vt 0.193092 0.108031
vt 0.079843 0.095336
vt 0.045796 0.093861
vt 0.161056 0.111114
vt 0.190206 0.093861
vt 0.074943 0.111114
vt 0.076598 0.102989
vt 0.156155 0.095335
vt 0.159401 0.102989
vt 0.097604 0.152524
vt 0.070133 0.172224
vt 0.042910 0.108031
vt 0.184546 0.080513
vt 0.082432 0.180250
vt 0.096098 0.416288
vt 0.112244 0.402849
vt 0.110605 0.419107
vt 0.780158 0.052626
vt 0.799631 0.065077
vt 0.779716 0.065025
vt 0.635498 0.737886
vt 0.655646 0.751706
vt 0.635731 0.751705
vt 0.780720 0.041911
vt 0.800073 0.052678
vt 0.635420 0.723510
vt 0.655413 0.737888
vt 0.743037 0.763927
vt 0.763456 0.775470
vt 0.743541 0.775520
vt 0.635498 0.709130
vt 0.655334 0.723512
vt 0.742662 0.750874
vt 0.762951 0.763877
vt 0.635731 0.695299
vt 0.655413 0.709132
vt 0.742431 0.736864
vt 0.762577 0.750824
vt 0.636110 0.682547
vt 0.655646 0.695300
vt 0.742353 0.722435
vt 0.762346 0.736814
vt 0.636619 0.671364
vt 0.656024 0.682548
vt 0.742431 0.708142
vt 0.762268 0.722385
vt 0.780158 0.146015
vt 0.800635 0.155759
vt 0.780720 0.155707
vt 0.742662 0.694533
vt 0.762346 0.708092
vt 0.779716 0.134420
vt 0.800073 0.146068
vt 0.743037 0.682132
vt 0.762577 0.694483
vt 0.779412 0.121365
vt 0.799631 0.134472
vt 0.484150 0.703703
vt 0.503909 0.718049
vt 0.743541 0.671414
vt 0.762951 0.682082
vt 0.779257 0.107355
vt 0.799327 0.121418
vt 0.484454 0.690096
vt 0.504064 0.703756
vt 0.484454 0.759490
vt 0.504810 0.771138
vt 0.484895 0.771086
vt 0.779257 0.092925
vt 0.799172 0.107407
vt 0.484895 0.677697
vt 0.504369 0.690148
vt 0.484150 0.746436
vt 0.504369 0.759543
vt 0.779412 0.078632
vt 0.799172 0.092978
vt 0.636110 0.764435
vt 0.656533 0.775591
vt 0.636619 0.775589
vt 0.504064 0.746489
vt 0.799327 0.078685
vt 0.656024 0.764437
vt 0.635420 0.859413
vt 0.644403 0.958089
vt 0.635517 0.957938
vt 0.176328 0.299010
vt 0.155258 0.301422
vt 0.165868 0.288794
vt 0.090316 0.396352
vt 0.100953 0.400655
vt 0.169795 0.318723
vt 0.163399 0.309373
vt 0.070133 0.402733
vt 0.082432 0.410759
vt 0.190206 0.324370
vt 0.184546 0.311022
vt 0.059674 0.392517
vt 0.080744 0.390105
vt 0.176447 0.340141
vt 0.174201 0.329112
vt 0.051456 0.380504
vt 0.072603 0.382153
vt 0.193092 0.352987
vt 0.193092 0.338540
vt 0.061801 0.362415
vt 0.066207 0.372804
vt 0.190206 0.367157
vt 0.176447 0.351386
vt 0.070133 0.288794
vt 0.072603 0.309373
vt 0.059674 0.299010
vt 0.042910 0.352987
vt 0.045796 0.367157
vt 0.184546 0.380504
vt 0.174201 0.362415
vt 0.082432 0.280768
vt 0.080744 0.301422
vt 0.059555 0.340141
vt 0.059555 0.351386
vt 0.163399 0.382153
vt 0.169795 0.372804
vt 0.100953 0.290872
vt 0.090316 0.295175
vt 0.045796 0.324370
vt 0.042910 0.338540
vt 0.165869 0.402733
vt 0.176328 0.392517
vt 0.110605 0.272420
vt 0.096098 0.275239
vt 0.051456 0.311022
vt 0.061801 0.329112
vt 0.145685 0.396352
vt 0.155258 0.390105
vt 0.125397 0.272420
vt 0.112244 0.288678
vt 0.066207 0.318723
vt 0.139904 0.416288
vt 0.153570 0.410759
vt 0.135049 0.290872
vt 0.123757 0.288678
vt 0.125397 0.419107
vt 0.135049 0.400655
vt 0.153570 0.280768
vt 0.139904 0.275239
vt 0.123757 0.402849
vt 0.145685 0.295175
vt 0.131896 0.390502
vt 0.095437 0.386995
vt 0.075787 0.323725
vt 0.165636 0.341181
vt 0.163806 0.332192
vt 0.081000 0.375422
vt 0.075787 0.367802
vt 0.163806 0.359335
vt 0.165636 0.350346
vt 0.957090 0.671553
vt 0.946253 0.729805
vt 0.946550 0.671364
vt 0.072196 0.359335
vt 0.087635 0.309624
vt 0.070366 0.341181
vt 0.070366 0.350346
vt 0.155002 0.375422
vt 0.160215 0.367802
vt 0.104106 0.301025
vt 0.095437 0.304532
vt 0.895778 0.586865
vt 0.884819 0.528368
vt 0.895778 0.488319
vt 0.072196 0.332192
vt 0.148367 0.381903
vt 0.113309 0.299237
vt 0.081000 0.316104
vt 0.140565 0.386995
vt 0.131896 0.301025
vt 0.122693 0.299237
vt 0.113309 0.392290
vt 0.122693 0.392290
vt 0.148367 0.309624
vt 0.140565 0.304532
vt 0.493278 0.855035
vt 0.484095 0.953488
vt 0.483995 0.854961
vt 0.104106 0.390502
vt 0.160215 0.323725
vt 0.155002 0.316104
vt 0.087635 0.381903
vt 0.140442 0.732457
vt 0.152154 0.691774
vt 0.151833 0.732485
vt 0.805714 0.314326
vt 0.817426 0.273644
vt 0.817104 0.314354
vt 0.054300 0.732485
vt 0.045439 0.691752
vt 0.054622 0.691774
vt 0.786677 0.529117
vt 0.798999 0.488319
vt 0.797701 0.529059
vt 0.914083 0.273810
vt 0.903246 0.332061
vt 0.903544 0.273621
vt 0.806036 0.372766
vt 0.817426 0.372794
vt 0.859601 0.854033
vt 0.849276 0.912205
vt 0.849559 0.853767
vt 0.787975 0.587542
vt 0.798999 0.587484
vt 0.387046 0.803881
vt 0.375889 0.745468
vt 0.387046 0.705328
vt 0.043232 0.790897
vt 0.054622 0.790925
vt 0.860433 0.769917
vt 0.849276 0.711504
vt 0.860433 0.671364
vt 0.140764 0.790897
vt 0.152154 0.790925
vt 0.897292 0.042100
vt 0.886455 0.100351
vt 0.886753 0.041911
vt 0.290069 0.803881
vt 0.278912 0.745468
vt 0.290069 0.705328
vt 0.742353 0.859342
vt 0.751637 0.957942
vt 0.742454 0.957869
vt 0.946253 0.853937
vt 0.955536 0.952537
vt 0.946353 0.952464
vt 0.493278 0.953561
vt 0.484095 0.953488
vt 0.808243 0.273621
vt 0.808243 0.273621
vt 0.644403 0.958089
vt 0.635517 0.957938
vt 0.790111 0.488366
vt 0.790111 0.488366
vt 0.291271 0.042064
vt 0.278912 0.337601
vt 0.278912 0.326128
vt 0.281203 0.314875
vt 0.285699 0.304276
vt 0.292224 0.294736
vt 0.300530 0.286624
vt 0.310297 0.280250
vt 0.321149 0.275859
vt 0.332670 0.273621
vt 0.344416 0.273621
vt 0.355937 0.275859
vt 0.366789 0.280250
vt 0.376556 0.286624
vt 0.384862 0.294736
vt 0.391388 0.304276
vt 0.398174 0.326128
vt 0.398174 0.337601
vt 0.395883 0.348853
vt 0.391388 0.359453
vt 0.384862 0.368992
vt 0.376556 0.377105
vt 0.366789 0.383479
vt 0.344416 0.390108
vt 0.310297 0.383479
vt 0.332670 0.390108
vt 0.321149 0.387869
vt 0.300530 0.377105
vt 0.292224 0.368992
vt 0.285699 0.359453
vt 0.556309 0.421350
vt 0.530416 0.189578
vt 0.800635 0.041964
vt 0.656533 0.671366
vt 0.763456 0.671364
vt 0.504810 0.677749
vt 0.644403 0.859566
vt 0.957090 0.770114
vt 0.885120 0.586806
vt 0.142971 0.691752
vt 0.042910 0.732457
vt 0.914083 0.372371
vt 0.859601 0.952595
vt 0.376195 0.803908
vt 0.849582 0.769944
vt 0.897292 0.140661
vt 0.279218 0.803908
vt 0.751637 0.859416
vt 0.955536 0.854011
vt 0.493278 0.953561
vt 0.817426 0.273644
vt 0.798999 0.488319
vt 0.042910 0.598515
vt 0.066624 0.591178
vt 0.060060 0.584767
vt 0.484077 0.525417
vt 0.549092 0.517911
vt 0.549600 0.505172
vt 0.150412 0.512344
vt 0.126698 0.519680
vt 0.133262 0.526091
vt 0.052549 0.607929
vt 0.126698 0.591178
vt 0.042910 0.512344
vt 0.060060 0.526091
vt 0.150412 0.598515
vt 0.133262 0.584767
vt 0.066623 0.519680
vt 0.140773 0.502929
vt 0.042910 0.890282
vt 0.044476 0.891812
vt 0.060381 0.890282
vt 0.700857 0.505172
vt 0.635420 0.519017
vt 0.700316 0.518334
vt 0.628000 0.055756
vt 0.693437 0.124281
vt 0.692896 0.055073
vt 0.700857 0.587542
vt 0.693437 0.041911
vt 0.719894 0.273621
vt 0.654457 0.287466
vt 0.719353 0.286783
vt 0.484077 0.539833
vt 0.549600 0.593874
vt 0.719894 0.355990
vt 0.066624 0.591178
vt 0.042910 0.598515
vt 0.060060 0.584767
vt 0.549600 0.505172
vt 0.483995 0.527487
vt 0.484077 0.525417
vt 0.126698 0.519680
vt 0.150412 0.512344
vt 0.133262 0.526091
vt 0.140773 0.607929
vt 0.052549 0.607929
vt 0.042910 0.512344
vt 0.060060 0.526091
vt 0.133262 0.584767
vt 0.126698 0.591178
vt 0.052549 0.502929
vt 0.066623 0.519680
vt 0.150412 0.598515
vt 0.140773 0.502929
vt 0.044476 0.891812
vt 0.042910 0.876277
vt 0.060381 0.890282
vt 0.700857 0.505172
vt 0.635420 0.519017
vt 0.635508 0.516878
vt 0.693437 0.124281
vt 0.628000 0.055756
vt 0.692896 0.055073
vt 0.700316 0.518334
vt 0.635508 0.530265
vt 0.693437 0.041911
vt 0.628088 0.053617
vt 0.719894 0.273621
vt 0.654457 0.287466
vt 0.654545 0.285327
vt 0.549092 0.517911
vt 0.484077 0.539833
vt 0.719894 0.355990
vt 0.719353 0.286783
vt 0.483995 0.527487
vt 0.140773 0.607929
vt 0.052549 0.502929
vt 0.060381 0.876277
vt 0.058815 0.874747
vt 0.044476 0.874747
vt 0.042910 0.876277
vt 0.058814 0.891812
vt 0.635508 0.516878
vt 0.628088 0.067004
vt 0.635508 0.530265
vt 0.628088 0.053617
vt 0.654545 0.285327
vt 0.654545 0.298713
vt 0.058815 0.874747
vt 0.060381 0.876277
vt 0.058814 0.891812
vt 0.042910 0.890282
vt 0.044476 0.874747
vt 0.628088 0.067004
vt 0.700857 0.587542
vt 0.549600 0.593874
vt 0.654545 0.298713
vn 0.6267 0.1549 0.7637
vn -0.0980 0.0000 -0.9952
vn -0.2903 0.0000 -0.9569
vn 0.0000 -1.0000 -0.0000
vn -0.4714 0.0000 -0.8819
vn -0.6344 0.0000 -0.7730
vn -0.7730 0.0000 -0.6344
vn -0.8819 0.0000 -0.4714
vn -0.9569 0.0000 -0.2903
vn -0.9952 0.0000 -0.0980
vn -0.9952 -0.0000 0.0980
vn -0.9580 -0.0009 0.2869
vn -0.9573 -0.0002 0.2893
vn -0.9569 -0.0000 0.2903
vn -0.8819 -0.0020 0.4714
vn -0.7679 -0.0007 0.6406
vn -0.7715 -0.0022 0.6363
vn -0.7730 -0.0028 0.6344
vn -0.6344 0.0000 0.7730
vn -0.4714 0.0000 0.8819
vn -0.2903 0.0000 0.9569
vn -0.0980 0.0000 0.9952
vn 0.0980 0.0000 0.9952
vn 0.2903 0.0000 0.9569
vn 0.4714 0.0000 0.8819
vn 0.6344 -0.0000 0.7730
vn 0.7730 -0.0000 0.6344
vn 0.8819 0.0000 0.4714
vn 0.9569 0.0000 0.2903
vn 0.9952 -0.0000 0.0980
vn 0.9952 -0.0000 -0.0980
vn 0.9569 -0.0000 -0.2903
vn 0.8819 -0.0000 -0.4714
vn 0.7730 0.0000 -0.6344
vn 0.6344 0.0000 -0.7730
vn 0.4714 0.0000 -0.8819
vn 0.2903 0.0000 -0.9569
vn 0.0980 0.0000 -0.9952
vn 0.2878 -0.8912 -0.3507
vn 0.6267 0.1549 -0.7637
vn -0.9454 0.1549 -0.2868
vn -0.0968 0.1549 0.9832
vn 0.9832 0.1549 -0.0968
vn -0.4657 0.1549 -0.8713
vn -0.7552 0.1550 0.6370
vn -0.7564 0.1548 0.6355
vn -0.7571 0.1547 0.6347
vn 0.7637 0.1549 0.6267
vn 0.4657 0.1549 -0.8713
vn -0.9832 0.1549 -0.0968
vn 0.0968 0.1549 0.9832
vn 0.9454 0.1549 -0.2868
vn -0.6267 0.1549 -0.7637
vn -0.6267 0.1549 0.7637
vn 0.8713 0.1549 0.4657
vn 0.2868 0.1549 -0.9454
vn -0.9832 0.1549 0.0968
vn 0.2868 0.1549 0.9454
vn 0.8713 0.1549 -0.4657
vn -0.7637 0.1549 -0.6267
vn -0.4657 0.1549 0.8713
vn 0.9454 0.1549 0.2868
vn -0.0968 0.1549 -0.9832
vn 0.0968 0.1549 -0.9832
vn -0.9471 0.1549 0.2812
vn -0.9469 0.1549 0.2819
vn -0.9472 0.1550 0.2807
vn 0.4657 0.1549 0.8713
vn 0.7637 0.1549 -0.6267
vn -0.8713 0.1549 -0.4657
vn -0.2868 0.1549 0.9454
vn 0.9832 0.1549 0.0968
vn -0.2868 0.1549 -0.9454
vn -0.8713 0.1549 0.4657
vn -0.0445 -0.8912 0.4515
vn -0.2138 -0.8912 -0.4001
vn 0.2138 -0.8912 -0.4001
vn 0.0445 -0.8912 0.4515
vn -0.2878 -0.8912 -0.3507
vn 0.1317 -0.8912 -0.4341
vn 0.1317 -0.8912 0.4341
vn -0.3507 -0.8912 -0.2878
vn 0.0445 -0.8912 -0.4515
vn 0.2138 -0.8912 0.4001
vn -0.4001 -0.8912 -0.2138
vn 0.2878 -0.8912 0.3507
vn -0.4341 -0.8912 -0.1317
vn 0.3507 -0.8912 0.2878
vn -0.4515 -0.8912 -0.0445
vn 0.4001 -0.8912 0.2138
vn -0.4515 -0.8912 0.0445
vn 0.4341 -0.8912 0.1317
vn -0.4347 -0.8910 0.1313
vn -0.4347 -0.8912 0.1295
vn -0.4347 -0.8913 0.1288
vn 0.4515 -0.8912 0.0445
vn -0.4010 -0.8907 0.2143
vn 0.4515 -0.8912 -0.0445
vn -0.3506 -0.8906 0.2895
vn -0.3475 -0.8912 0.2917
vn -0.3517 -0.8905 0.2887
vn 0.4341 -0.8912 -0.1317
vn -0.2878 -0.8912 0.3507
vn 0.4001 -0.8912 -0.2138
vn -0.2138 -0.8912 0.4001
vn -0.0445 -0.8912 -0.4515
vn 0.3507 -0.8912 -0.2878
vn -0.1317 -0.8912 0.4341
vn -0.1317 -0.8912 -0.4341
vn 0.2218 0.9679 0.1185
vn -0.8819 0.0000 0.4714
vn -0.7730 0.0000 0.6344
vn -0.9952 -0.0051 0.0980
vn -0.2502 0.9679 0.0246
vn 0.2406 0.9679 0.0730
vn -0.2406 0.9679 0.0730
vn 0.2502 0.9679 0.0246
vn -0.2218 0.9679 0.1185
vn 0.2502 0.9679 -0.0246
vn -0.1944 0.9679 0.1595
vn 0.2406 0.9679 -0.0730
vn -0.1595 0.9679 0.1944
vn 0.2218 0.9679 -0.1185
vn -0.1185 0.9679 0.2218
vn -0.0246 0.9679 -0.2502
vn 0.1944 0.9679 -0.1595
vn -0.0730 0.9679 0.2406
vn -0.0730 0.9679 -0.2406
vn 0.1595 0.9679 -0.1944
vn -0.0246 0.9679 0.2502
vn -0.1185 0.9679 -0.2218
vn 0.1185 0.9679 -0.2218
vn 0.0246 0.9679 0.2502
vn -0.1595 0.9679 -0.1944
vn 0.0730 0.9679 -0.2406
vn 0.0730 0.9679 0.2406
vn -0.1944 0.9679 -0.1595
vn 0.0246 0.9679 -0.2502
vn 0.1185 0.9679 0.2218
vn -0.2218 0.9679 -0.1185
vn 0.1595 0.9679 0.1944
vn -0.2406 0.9679 -0.0730
vn 0.1944 0.9679 0.1595
vn -0.2502 0.9679 -0.0246
vn 0.0000 1.0000 -0.0000
vn 0.1951 -0.0000 0.9808
vn -1.0000 0.0000 0.0000
vn -0.0980 -0.0051 -0.9952
vn 0.9595 0.2655 -0.0945
vn -0.0945 0.2655 -0.9595
vn 0.0945 0.2655 0.9595
vn -0.9595 0.2655 0.0945
vn -0.1951 0.0000 -0.9808
vn -0.9808 0.0000 0.1951
vn -0.0000 -0.0000 1.0000
vn 1.0000 0.0000 0.0000
vn 0.9808 0.0000 -0.1951
vn 0.0000 0.0000 -1.0000
vn 0.0980 -0.0051 0.9952
vn 0.9952 -0.0051 -0.0980
vn -0.0893 -0.4127 -0.9065
vn -0.0893 -0.4128 -0.9064
vn 0.0893 -0.4128 0.9064
vn -0.9064 -0.4128 0.0893
vn -0.9065 -0.4128 0.0893
vn 0.9065 -0.4127 -0.0893
vn -0.9583 -0.0012 0.2858
vn -0.7663 -0.0000 0.6425
vn -0.7544 0.1551 0.6378
vn -0.9467 0.1548 0.2824
vn -0.4347 -0.8909 0.1319
vn -0.3461 -0.8914 0.2926
vn 0.4261 -0.9037 -0.0420
vn 0.7577 0.6483 -0.0746
vn -0.4261 -0.9037 0.0420
vn 0.4026 -0.8537 0.3304
vn 0.3304 -0.8537 -0.4026
vn 0.0420 -0.9037 0.4261
vn -0.0420 -0.9037 -0.4261
vn -0.3304 -0.8537 0.4026
vn -0.4026 -0.8537 -0.3304
vn -0.7577 0.6483 0.0746
vn -0.5291 0.5517 0.6447
vn -0.6447 0.5517 -0.5291
vn 0.0746 0.6483 0.7577
vn -0.0746 0.6483 -0.7577
vn 0.6447 0.5517 0.5291
vn 0.5291 0.5517 -0.6447
vn -0.4250 0.9042 0.0419
vn -0.7575 -0.6485 0.0746
vn 0.4250 0.9042 -0.0419
vn -0.4032 0.8532 -0.3309
vn -0.3309 0.8532 0.4032
vn -0.0419 0.9042 -0.4249
vn -0.0419 0.9042 -0.4250
vn 0.0419 0.9042 0.4250
vn 0.3309 0.8532 -0.4032
vn 0.4032 0.8532 0.3309
vn 0.7575 -0.6485 -0.0746
vn 0.5293 -0.5512 -0.6450
vn 0.6450 -0.5512 0.5293
vn -0.0746 -0.6485 -0.7575
vn 0.0746 -0.6485 0.7575
vn -0.6450 -0.5512 -0.5293
vn -0.5293 -0.5512 0.6450
vn -0.5744 -0.4243 0.7000
vn -0.5745 -0.4244 0.6999
vn 0.5745 -0.4243 -0.7000
vn 0.7000 -0.4244 0.5744
vn 0.7000 -0.4243 0.5745
vn -0.7000 -0.4244 -0.5744
vn -0.7000 -0.4243 -0.5745
usemtl None
s 1
f 1/1/1 2/2/1 3/3/1
f 4/4/2 5/5/2 6/6/2
f 7/7/3 6/6/3 8/8/3
f 9/9/4 10/10/4 8/11/4
f 11/12/5 8/8/5 12/13/5
f 13/14/6 12/15/6 14/16/6
f 15/17/7 14/16/7 16/18/7
f 17/19/8 16/18/8 18/20/8
f 19/21/9 18/20/9 20/22/9
f 21/23/10 20/22/10 22/24/10
f 23/25/11 22/24/11 24/26/11
f 10/27/12 23/25/13 24/26/14
f 25/28/15 26/29/15 10/27/15
f 27/30/16 28/31/17 25/32/18
f 29/33/19 27/30/19 30/34/19
f 31/35/20 30/34/20 32/36/20
f 33/37/21 32/36/21 34/38/21
f 35/39/22 34/38/22 36/40/22
f 37/41/23 36/40/23 38/42/23
f 39/43/24 38/42/24 9/44/24
f 3/3/25 9/44/25 40/45/25
f 1/1/26 40/45/26 41/46/26
f 42/47/27 41/48/27 43/49/27
f 44/50/28 43/49/28 45/51/28
f 46/52/29 45/51/29 47/53/29
f 48/54/30 47/53/30 49/55/30
f 50/56/31 49/55/31 51/57/31
f 52/58/32 51/57/32 53/59/32
f 54/60/33 53/59/33 55/61/33
f 56/62/34 55/61/34 57/63/34
f 58/64/35 57/65/35 59/66/35
f 60/67/36 59/66/36 61/68/36
f 62/69/37 61/68/37 63/70/37
f 64/71/38 63/70/38 5/5/38
f 65/72/39 66/73/39 67/74/39
f 58/64/40 67/75/40 56/76/40
f 19/21/41 68/77/41 17/19/41
f 33/37/42 69/78/42 70/79/42
f 50/56/43 71/80/43 48/54/43
f 7/7/44 72/81/44 73/82/44
f 74/83/45 75/84/46 28/31/47
f 42/47/48 76/85/48 1/86/48
f 60/67/49 65/87/49 58/64/49
f 21/23/50 77/88/50 19/21/50
f 37/41/51 69/78/51 35/39/51
f 52/58/52 78/89/52 50/56/52
f 13/14/53 72/90/53 11/91/53
f 74/83/54 79/92/54 80/93/54
f 44/50/55 81/94/55 42/47/55
f 62/69/56 82/95/56 60/67/56
f 21/23/57 83/96/57 84/97/57
f 39/43/58 85/98/58 37/41/58
f 54/60/59 86/99/59 52/58/59
f 13/14/60 87/100/60 88/101/60
f 31/35/61 79/92/61 29/33/61
f 46/52/62 89/102/62 44/50/62
f 4/4/63 90/103/63 64/71/63
f 64/71/64 91/104/64 62/69/64
f 23/25/65 92/105/66 83/96/67
f 3/3/68 93/106/68 39/43/68
f 56/62/69 94/107/69 54/60/69
f 17/19/70 87/100/70 15/17/70
f 33/37/71 95/108/71 31/35/71
f 48/54/72 96/109/72 46/52/72
f 4/4/73 73/82/73 97/110/73
f 28/111/74 92/105/74 26/29/74
f 98/112/38 99/113/38 100/114/38
f 69/115/75 101/116/75 70/117/75
f 72/118/76 102/119/76 73/120/76
f 82/121/77 103/122/77 65/72/77
f 69/115/78 104/123/78 105/124/78
f 88/125/79 106/126/79 72/118/79
f 91/127/80 107/128/80 82/121/80
f 93/129/81 104/123/81 85/130/81
f 87/131/82 108/132/82 88/125/82
f 90/133/83 100/134/83 91/127/83
f 93/129/84 109/135/84 110/136/84
f 68/137/85 111/138/85 87/131/85
f 2/139/86 112/140/86 109/135/86
f 77/141/87 113/142/87 68/137/87
f 81/143/88 112/140/88 76/144/88
f 84/145/89 114/146/89 77/141/89
f 81/143/90 115/147/90 116/148/90
f 83/149/91 117/150/91 84/145/91
f 89/151/92 118/152/92 115/147/92
f 92/153/93 119/154/94 83/149/95
f 71/155/96 118/152/96 96/156/96
f 92/153/97 120/157/97 121/158/97
f 71/155/98 122/159/98 123/160/98
f 75/161/99 124/162/100 120/157/101
f 78/163/102 125/164/102 122/159/102
f 80/165/103 126/166/103 124/162/103
f 94/167/104 125/164/104 86/168/104
f 95/169/105 126/166/105 79/170/105
f 97/171/106 98/172/106 90/133/106
f 94/167/107 66/73/107 127/173/107
f 70/117/108 128/174/108 95/169/108
f 97/171/109 102/119/109 129/175/109
f 130/176/110 131/177/110 132/178/110
f 109/179/25 133/180/25 110/181/25
f 113/182/8 134/183/8 111/184/8
f 112/185/26 135/186/26 109/179/26
f 114/187/9 136/188/9 113/182/9
f 116/189/27 137/190/27 112/191/27
f 117/192/10 138/193/10 114/187/10
f 115/194/28 132/195/28 116/189/28
f 119/196/11 139/197/11 117/192/11
f 118/198/29 130/199/29 115/194/29
f 121/200/14 140/201/14 119/196/14
f 123/202/30 141/203/30 118/198/30
f 120/204/111 142/205/111 121/200/111
f 122/206/31 143/207/31 123/202/31
f 124/208/112 144/209/112 120/210/112
f 125/211/32 145/212/32 122/206/32
f 126/213/19 146/214/19 124/208/19
f 127/215/33 147/216/33 125/211/33
f 128/217/20 148/218/20 126/213/20
f 129/219/2 149/220/2 98/112/2
f 66/221/34 150/222/34 127/215/34
f 101/223/21 151/224/21 128/217/21
f 102/225/3 152/226/3 129/219/3
f 103/227/35 153/228/35 66/229/35
f 105/230/22 154/231/22 101/223/22
f 106/232/5 155/233/5 102/225/5
f 107/234/36 156/235/36 103/227/36
f 104/236/23 157/237/23 105/230/23
f 108/238/6 158/239/6 106/240/6
f 100/114/37 159/241/37 107/234/37
f 110/181/24 160/242/24 104/236/24
f 111/184/7 161/243/7 108/238/7
f 162/244/113 163/245/113 164/246/113
f 140/247/114 165/248/114 139/249/114
f 130/176/115 166/250/115 167/251/115
f 140/247/116 168/252/116 169/253/116
f 143/254/117 166/250/117 141/255/117
f 144/256/118 168/252/118 142/257/118
f 145/258/119 170/259/119 143/254/119
f 144/256/120 171/260/120 172/261/120
f 147/262/121 173/263/121 145/258/121
f 148/264/122 171/260/122 146/265/122
f 147/262/123 174/266/123 175/267/123
f 151/268/124 176/269/124 148/264/124
f 152/270/125 177/271/125 149/272/125
f 153/273/126 174/266/126 150/274/126
f 154/275/127 178/276/127 151/268/127
f 155/277/128 179/278/128 152/270/128
f 153/273/129 180/279/129 181/280/129
f 154/275/130 182/281/130 183/282/130
f 155/277/131 184/283/131 185/284/131
f 159/285/132 180/279/132 156/286/132
f 160/287/133 182/281/133 157/288/133
f 161/289/134 184/283/134 158/290/134
f 99/291/135 186/292/135 159/285/135
f 160/287/136 187/293/136 188/294/136
f 134/295/137 189/296/137 161/289/137
f 99/291/138 177/271/138 190/297/138
f 135/298/139 187/293/139 133/299/139
f 134/295/140 191/300/140 192/301/140
f 137/302/141 193/303/141 135/298/141
f 138/304/142 191/300/142 136/305/142
f 137/302/143 131/177/143 194/306/143
f 138/304/144 165/248/144 195/307/144
f 196/308/145 197/309/145 198/310/145
f 172/261/145 199/311/145 200/312/145
f 175/267/145 162/313/145 173/263/145
f 176/269/145 199/311/145 171/260/145
f 174/266/145 201/314/145 175/267/145
f 176/269/145 202/315/145 203/316/145
f 204/317/146 205/318/146 169/319/146
f 181/280/145 206/320/145 174/266/145
f 183/282/145 202/315/145 178/276/145
f 185/284/145 207/321/145 179/278/145
f 181/280/145 208/322/145 209/323/145
f 183/282/145 210/324/145 211/325/145
f 185/284/145 212/326/145 213/327/145
f 186/292/145 208/322/145 180/279/145
f 210/328/147 214/329/147 215/330/147
f 189/296/145 212/326/145 184/283/145
f 186/292/145 198/310/145 216/331/145
f 187/293/145 217/332/145 188/294/145
f 192/301/145 218/333/145 189/296/145
f 190/297/145 219/334/145 198/310/145
f 193/303/145 220/335/145 187/293/145
f 192/301/145 221/336/145 222/337/145
f 194/306/145 196/308/145 193/303/145
f 195/307/145 221/336/145 191/300/145
f 194/306/145 223/338/145 224/339/145
f 195/307/145 225/340/145 226/341/145
f 167/251/145 223/338/145 131/177/145
f 210/342/148 227/343/148 217/344/148
f 167/251/145 197/309/145 228/345/145
f 169/253/145 229/346/145 204/347/145
f 166/250/145 230/348/145 197/309/145
f 168/252/145 200/312/145 229/346/145
f 231/349/149 163/350/149 232/351/149
f 233/352/150 234/353/150 235/354/150
f 214/355/151 227/356/151 215/357/151
f 205/358/152 236/359/152 237/360/152
f 162/361/153 231/362/153 173/363/153
f 179/364/2 235/354/2 177/365/2
f 207/366/154 233/367/154 179/368/154
f 169/369/11 237/360/11 165/370/11
f 230/371/155 232/372/155 163/373/155
f 188/374/23 214/355/23 182/375/23
f 219/376/156 235/377/156 234/378/156
f 173/379/31 232/351/31 170/380/31
f 217/381/157 238/382/157 188/383/157
f 225/384/158 237/385/158 236/386/158
f 207/387/159 234/388/159 239/389/159
f 204/390/160 236/391/160 240/392/160
f 215/393/161 241/394/162 227/343/162
f 234/353/163 242/395/163 239/396/163
f 164/246/164 243/397/165 244/398/164
f 236/359/166 245/399/166 240/400/166
f 1/1/1 76/401/1 2/2/1
f 4/4/2 64/71/2 5/5/2
f 7/7/3 4/4/3 6/6/3
f 8/11/4 6/402/4 5/403/4
f 5/403/4 63/404/4 8/11/4
f 61/405/4 59/406/4 57/407/4
f 57/407/4 55/408/4 53/409/4
f 53/409/4 51/410/4 49/411/4
f 49/411/4 47/412/4 53/409/4
f 45/413/4 43/414/4 41/415/4
f 41/415/4 40/416/4 9/9/4
f 9/9/4 38/417/4 36/418/4
f 36/418/4 34/419/4 9/9/4
f 32/420/4 30/421/4 27/422/4
f 27/422/4 25/423/4 32/420/4
f 10/10/4 24/424/4 18/425/4
f 22/426/4 20/427/4 18/425/4
f 18/425/4 16/428/4 8/11/4
f 14/429/4 12/430/4 8/11/4
f 8/11/4 63/404/4 61/405/4
f 61/405/4 57/407/4 53/409/4
f 53/409/4 47/412/4 45/413/4
f 45/413/4 41/415/4 53/409/4
f 9/9/4 34/419/4 32/420/4
f 32/420/4 25/423/4 10/10/4
f 24/424/4 22/426/4 18/425/4
f 16/428/4 14/429/4 8/11/4
f 8/11/4 61/405/4 53/409/4
f 53/409/4 41/415/4 9/9/4
f 9/9/4 32/420/4 10/10/4
f 10/10/4 18/425/4 8/11/4
f 8/11/4 53/409/4 9/9/4
f 11/12/5 7/7/5 8/8/5
f 13/14/6 11/91/6 12/15/6
f 15/17/7 13/14/7 14/16/7
f 17/19/8 15/17/8 16/18/8
f 19/21/9 17/19/9 18/20/9
f 21/23/10 19/21/10 20/22/10
f 23/25/11 21/23/11 22/24/11
f 10/27/12 26/29/167 23/25/13
f 25/28/15 28/111/15 26/29/15
f 27/30/16 74/83/168 28/31/17
f 29/33/19 74/83/19 27/30/19
f 31/35/20 29/33/20 30/34/20
f 33/37/21 31/35/21 32/36/21
f 35/39/22 33/37/22 34/38/22
f 37/41/23 35/39/23 36/40/23
f 39/43/24 37/41/24 38/42/24
f 3/3/25 39/43/25 9/44/25
f 1/1/26 3/3/26 40/45/26
f 42/47/27 1/86/27 41/48/27
f 44/50/28 42/47/28 43/49/28
f 46/52/29 44/50/29 45/51/29
f 48/54/30 46/52/30 47/53/30
f 50/56/31 48/54/31 49/55/31
f 52/58/32 50/56/32 51/57/32
f 54/60/33 52/58/33 53/59/33
f 56/62/34 54/60/34 55/61/34
f 58/64/35 56/76/35 57/65/35
f 60/67/36 58/64/36 59/66/36
f 62/69/37 60/67/37 61/68/37
f 64/71/38 62/69/38 63/70/38
f 65/72/39 103/122/39 66/73/39
f 58/64/40 65/87/40 67/75/40
f 19/21/41 77/88/41 68/77/41
f 33/37/42 35/39/42 69/78/42
f 50/56/43 78/89/43 71/80/43
f 7/7/44 11/12/44 72/81/44
f 74/83/45 80/93/169 75/84/46
f 42/47/48 81/94/48 76/85/48
f 60/67/49 82/95/49 65/87/49
f 21/23/50 84/97/50 77/88/50
f 37/41/51 85/98/51 69/78/51
f 52/58/52 86/99/52 78/89/52
f 13/14/53 88/101/53 72/90/53
f 74/83/54 29/33/54 79/92/54
f 44/50/55 89/102/55 81/94/55
f 62/69/56 91/104/56 82/95/56
f 21/23/57 23/25/57 83/96/57
f 39/43/58 93/106/58 85/98/58
f 54/60/59 94/107/59 86/99/59
f 13/14/60 15/17/60 87/100/60
f 31/35/61 95/108/61 79/92/61
f 46/52/62 96/109/62 89/102/62
f 4/4/63 97/110/63 90/103/63
f 64/71/64 90/103/64 91/104/64
f 23/25/65 26/29/170 92/105/66
f 3/3/68 2/2/68 93/106/68
f 56/62/69 67/431/69 94/107/69
f 17/19/70 68/77/70 87/100/70
f 33/37/71 70/79/71 95/108/71
f 48/54/72 71/80/72 96/109/72
f 4/4/73 7/7/73 73/82/73
f 28/111/74 75/432/74 92/105/74
f 98/112/38 149/220/38 99/113/38
f 69/115/75 105/124/75 101/116/75
f 72/118/76 106/126/76 102/119/76
f 82/121/77 107/128/77 103/122/77
f 69/115/78 85/130/78 104/123/78
f 88/125/79 108/132/79 106/126/79
f 91/127/80 100/134/80 107/128/80
f 93/129/81 110/136/81 104/123/81
f 87/131/82 111/138/82 108/132/82
f 90/133/83 98/172/83 100/134/83
f 93/129/84 2/139/84 109/135/84
f 68/137/85 113/142/85 111/138/85
f 2/139/86 76/144/86 112/140/86
f 77/141/87 114/146/87 113/142/87
f 81/143/88 116/148/88 112/140/88
f 84/145/89 117/150/89 114/146/89
f 81/143/90 89/151/90 115/147/90
f 83/149/91 119/154/91 117/150/91
f 89/151/92 96/156/92 118/152/92
f 92/153/93 121/158/171 119/154/94
f 71/155/96 123/160/96 118/152/96
f 92/153/97 75/161/97 120/157/97
f 71/155/98 78/163/98 122/159/98
f 75/161/99 80/165/172 124/162/100
f 78/163/102 86/168/102 125/164/102
f 80/165/103 79/170/103 126/166/103
f 94/167/104 127/173/104 125/164/104
f 95/169/105 128/174/105 126/166/105
f 97/171/106 129/175/106 98/172/106
f 94/167/107 67/74/107 66/73/107
f 70/117/108 101/116/108 128/174/108
f 97/171/109 73/120/109 102/119/109
f 130/176/110 167/251/110 131/177/110
f 109/179/25 135/186/25 133/180/25
f 113/182/8 136/188/8 134/183/8
f 112/185/26 137/433/26 135/186/26
f 114/187/9 138/193/9 136/188/9
f 116/189/27 132/195/27 137/190/27
f 117/192/10 139/197/10 138/193/10
f 115/194/28 130/199/28 132/195/28
f 119/196/11 140/201/11 139/197/11
f 118/198/29 141/203/29 130/199/29
f 121/200/14 142/205/14 140/201/14
f 123/202/30 143/207/30 141/203/30
f 120/204/111 144/434/111 142/205/111
f 122/206/31 145/212/31 143/207/31
f 124/208/112 146/214/112 144/209/112
f 125/211/32 147/216/32 145/212/32
f 126/213/19 148/218/19 146/214/19
f 127/215/33 150/222/33 147/216/33
f 128/217/20 151/224/20 148/218/20
f 129/219/2 152/226/2 149/220/2
f 66/221/34 153/435/34 150/222/34
f 101/223/21 154/231/21 151/224/21
f 102/225/3 155/233/3 152/226/3
f 103/227/35 156/235/35 153/228/35
f 105/230/22 157/237/22 154/231/22
f 106/232/5 158/436/5 155/233/5
f 107/234/36 159/241/36 156/235/36
f 104/236/23 160/242/23 157/237/23
f 108/238/6 161/243/6 158/239/6
f 100/114/37 99/113/37 159/241/37
f 110/181/24 133/180/24 160/242/24
f 111/184/7 134/183/7 161/243/7
f 162/244/113 230/437/113 163/245/113
f 140/247/114 169/253/114 165/248/114
f 130/176/115 141/255/115 166/250/115
f 140/247/116 142/257/116 168/252/116
f 143/254/117 170/259/117 166/250/117
f 144/256/118 172/261/118 168/252/118
f 145/258/119 173/263/119 170/259/119
f 144/256/120 146/265/120 171/260/120
f 147/262/121 175/267/121 173/263/121
f 148/264/122 176/269/122 171/260/122
f 147/262/123 150/274/123 174/266/123
f 151/268/124 178/276/124 176/269/124
f 152/270/125 179/278/125 177/271/125
f 153/273/126 181/280/126 174/266/126
f 154/275/127 183/282/127 178/276/127
f 155/277/128 185/284/128 179/278/128
f 153/273/129 156/286/129 180/279/129
f 154/275/130 157/288/130 182/281/130
f 155/277/131 158/290/131 184/283/131
f 159/285/132 186/292/132 180/279/132
f 160/287/133 188/294/133 182/281/133
f 161/289/134 189/296/134 184/283/134
f 99/291/135 190/297/135 186/292/135
f 160/287/136 133/299/136 187/293/136
f 134/295/137 192/301/137 189/296/137
f 99/291/138 149/272/138 177/271/138
f 135/298/139 193/303/139 187/293/139
f 134/295/140 136/305/140 191/300/140
f 137/302/141 194/306/141 193/303/141
f 138/304/142 195/307/142 191/300/142
f 137/302/143 132/178/143 131/177/143
f 138/304/144 139/249/144 165/248/144
f 198/310/145 219/334/145 207/321/145
f 207/321/145 213/327/145 198/310/145
f 212/326/145 218/333/145 222/337/145
f 222/337/145 221/336/145 226/341/145
f 226/341/145 225/340/145 204/347/145
f 204/347/145 229/346/145 200/312/145
f 200/312/145 199/311/145 203/316/145
f 203/316/145 202/315/145 211/325/145
f 211/325/145 210/324/145 217/332/145
f 217/332/145 220/335/145 196/308/145
f 196/308/145 224/339/145 197/309/145
f 223/338/145 228/345/145 197/309/145
f 197/309/145 230/348/145 162/313/145
f 162/313/145 201/314/145 197/309/145
f 206/320/145 209/323/145 198/310/145
f 208/322/145 216/331/145 198/310/145
f 198/310/145 213/327/145 212/326/145
f 212/326/145 222/337/145 198/310/145
f 226/341/145 204/347/145 200/312/145
f 200/312/145 203/316/145 226/341/145
f 211/325/145 217/332/145 196/308/145
f 224/339/145 223/338/145 197/309/145
f 197/309/145 201/314/145 206/320/145
f 209/323/145 208/322/145 198/310/145
f 198/310/145 222/337/145 226/341/145
f 226/341/145 203/316/145 211/325/145
f 211/325/145 196/308/145 198/310/145
f 197/309/145 206/320/145 198/310/145
f 198/310/145 226/341/145 211/325/145
f 172/261/145 171/260/145 199/311/145
f 175/267/145 201/314/145 162/313/145
f 176/269/145 203/316/145 199/311/145
f 174/266/145 206/320/145 201/314/145
f 176/269/145 178/276/145 202/315/145
f 204/317/146 240/438/146 205/318/146
f 181/280/145 209/323/145 206/320/145
f 183/282/145 211/325/145 202/315/145
f 185/284/145 213/327/145 207/321/145
f 181/280/145 180/279/145 208/322/145
f 183/282/145 182/281/145 210/324/145
f 185/284/145 184/283/145 212/326/145
f 186/292/145 216/331/145 208/322/145
f 210/328/147 182/439/147 214/329/147
f 189/296/145 218/333/145 212/326/145
f 186/292/145 190/297/145 198/310/145
f 187/293/145 220/335/145 217/332/145
f 192/301/145 222/337/145 218/333/145
f 190/297/145 177/271/145 219/334/145
f 193/303/145 196/308/145 220/335/145
f 192/301/145 191/300/145 221/336/145
f 194/306/145 224/339/145 196/308/145
f 195/307/145 226/341/145 221/336/145
f 194/306/145 131/177/145 223/338/145
f 195/307/145 165/248/145 225/340/145
f 167/251/145 228/345/145 223/338/145
f 210/342/148 215/393/148 227/343/148
f 167/251/145 166/250/145 197/309/145
f 169/253/145 168/252/145 229/346/145
f 166/250/145 170/259/145 230/348/145
f 168/252/145 172/261/145 200/312/145
f 231/349/149 164/440/149 163/350/149
f 233/352/150 239/396/150 234/353/150
f 214/355/151 238/441/151 227/356/151
f 205/358/152 240/400/152 236/359/152
f 162/361/153 164/442/153 231/362/153
f 179/364/2 233/352/2 235/354/2
f 207/366/154 239/443/154 233/367/154
f 169/369/11 205/358/11 237/360/11
f 230/371/155 170/444/155 232/372/155
f 188/374/23 238/441/23 214/355/23
f 219/376/156 177/445/156 235/377/156
f 173/379/31 231/349/31 232/351/31
f 217/381/157 227/446/157 238/382/157
f 225/384/158 165/447/158 237/385/158
f 207/387/159 219/448/159 234/388/159
f 204/390/160 225/449/160 236/391/160
f 215/393/161 246/450/161 241/394/162
f 234/353/163 247/451/163 242/395/163
f 164/246/164 163/245/165 243/397/165
f 236/359/166 248/452/166 245/399/166
f 249/453/173 163/454/173 164/455/173
f 250/456/174 251/457/174 249/458/174
f 252/459/175 236/460/175 240/461/175
f 251/462/176 227/463/176 163/454/176
f 253/464/177 164/455/177 234/465/177
f 227/463/178 254/466/178 215/467/178
f 239/468/179 253/464/179 234/465/179
f 254/466/180 240/461/180 215/467/180
f 255/469/181 239/468/181 236/460/181
f 256/470/145 257/471/145 250/472/145
f 252/473/182 258/474/182 255/475/182
f 256/476/183 252/477/183 254/478/183
f 258/474/184 259/479/184 255/475/184
f 260/480/185 256/476/185 254/478/185
f 259/481/186 261/482/186 253/483/186
f 251/457/187 257/484/187 260/485/187
f 261/482/188 249/486/188 253/483/188
f 243/487/189 262/488/189 244/489/189
f 262/490/190 263/491/190 264/492/190
f 248/493/191 265/494/191 245/495/191
f 243/487/192 266/496/192 267/497/192
f 244/489/193 268/498/193 247/499/193
f 246/500/194 266/496/195 241/501/194
f 247/499/196 269/502/196 242/503/196
f 245/495/197 270/504/197 246/500/197
f 248/493/198 269/502/198 271/505/198
f 272/506/4 273/507/4 264/508/4
f 265/509/199 274/510/199 273/511/199
f 265/512/200 275/513/200 270/514/200
f 271/515/201 276/516/201 274/510/201
f 266/517/202 275/513/202 272/518/202
f 269/519/203 277/520/203 276/521/203
f 267/522/204 272/523/204 263/491/204
f 262/524/205 277/520/205 268/525/205
f 164/455/206 247/499/207 234/465/207
f 215/467/208 245/495/208 246/500/208
f 239/468/209 248/493/210 236/460/210
f 227/463/211 243/487/212 163/454/212
f 249/453/173 251/462/173 163/454/173
f 250/456/174 278/526/174 251/457/174
f 252/459/175 255/469/175 236/460/175
f 251/462/176 260/527/176 227/463/176
f 253/464/177 249/453/177 164/455/177
f 227/463/178 260/527/178 254/466/178
f 239/468/179 259/528/179 253/464/179
f 254/466/180 252/459/180 240/461/180
f 255/469/181 259/528/181 239/468/181
f 250/472/145 261/529/145 279/530/145
f 279/530/145 258/531/145 280/532/145
f 280/532/145 256/470/145 250/472/145
f 257/471/145 278/533/145 250/472/145
f 250/472/145 279/530/145 280/532/145
f 252/473/182 280/534/182 258/474/182
f 256/476/183 280/535/183 252/477/183
f 258/474/184 279/536/184 259/479/184
f 260/480/185 257/537/185 256/476/185
f 259/481/186 279/538/186 261/482/186
f 251/457/187 278/526/187 257/484/187
f 261/482/188 250/539/188 249/486/188
f 243/487/189 267/497/189 262/488/189
f 262/490/190 267/522/190 263/491/190
f 248/493/191 271/505/191 265/494/191
f 243/487/192 241/501/192 266/496/192
f 244/489/193 262/488/193 268/498/193
f 246/500/194 270/504/195 266/496/195
f 247/499/196 268/498/196 269/502/196
f 245/495/197 265/494/197 270/504/197
f 248/493/198 242/503/198 269/502/198
f 276/540/4 277/541/4 264/508/4
f 264/508/4 263/542/4 272/506/4
f 272/506/4 275/543/4 273/507/4
f 273/507/4 274/544/4 276/540/4
f 276/540/4 264/508/4 273/507/4
f 265/509/199 271/515/199 274/510/199
f 265/512/200 273/545/200 275/513/200
f 271/515/201 269/546/201 276/516/201
f 266/517/202 270/514/202 275/513/202
f 269/519/203 268/525/203 277/520/203
f 267/522/204 266/547/204 272/523/204
f 262/524/205 264/548/205 277/520/205
f 164/455/206 244/489/206 247/499/207
f 215/467/208 240/461/208 245/495/208
f 239/468/209 242/503/209 248/493/210
f 227/463/211 241/501/211 243/487/212
l 234 240
