{
  "name": "Level 2",
  "map": "map2",
  "lives": 5,
  "waves": [
    {
      "enemies": [
        "airship",
        "airplane"
      ]
    },
    {
      "enemies": [
        "airship",
        "airplane",
        "airplane",
        "airplane",
        "airship"
      ]
    },
    {
      "enemies": [
        "airplane",
        "airplane",
        "airplane",
        "stealth_plane"
      ]
    },
    {
      "enemies": [
        "stealth_plane",
        "stealth_plane",
        "stealth_plane"
      ]
    }
  ]
}