{
  "width": 10,
  "height": 10,
  "buildAreas": [
    {
      "x": 1,
      "y": 2,
      "value": "tower_space"
    },
    {
      "x": 5,
      "y": 5,
      "value": "tower_space"
    },
    {
      "x": 8,
      "y": 4,
      "value": "tower_space"
    }
  ],
  "pathPoints": [
    {
      "x": 0,
      "y": 1,
      "value": ""
    },
    {
      "x": 3,
      "y": 3,
      "value": "x"
    },
    {
      "x": 7,
      "y": 5,
      "value": "y"
    },
    {
      "x": 10,
      "y": 7,
      "value": "x"
    }
  ]
}